-- Merging decision tree log ---
manifest
ADDED from C:\brq\tfs-4251-ionic\SecurityTest\platforms\android\app\src\main\AndroidManifest.xml:2:1-16:12
INJECTED from C:\brq\tfs-4251-ionic\SecurityTest\platforms\android\app\src\main\AndroidManifest.xml:2:1-16:12
INJECTED from C:\brq\tfs-4251-ionic\SecurityTest\platforms\android\app\src\main\AndroidManifest.xml:2:1-16:12
INJECTED from C:\brq\tfs-4251-ionic\SecurityTest\platforms\android\app\src\main\AndroidManifest.xml:2:1-16:12
MERGED from [com.crashlytics.sdk.android:crashlytics:2.6.8] C:\Users\paulovictorviana\.gradle\caches\transforms-1\files-1.1\crashlytics-2.6.8.aar\c8db0415237fe3dafd440f583b1ef5bd\AndroidManifest.xml:2:1-13:12
MERGED from [:CordovaLib] C:\brq\tfs-4251-ionic\SecurityTest\platforms\android\CordovaLib\build\intermediates\manifests\full\debug\AndroidManifest.xml:20:1-27:12
MERGED from [com.crashlytics.sdk.android:beta:1.2.5] C:\Users\paulovictorviana\.gradle\caches\transforms-1\files-1.1\beta-1.2.5.aar\3ab9cf647d6583ea3fcc69cb9ec7bac9\AndroidManifest.xml:2:1-13:12
MERGED from [com.crashlytics.sdk.android:crashlytics-core:2.3.17] C:\Users\paulovictorviana\.gradle\caches\transforms-1\files-1.1\crashlytics-core-2.3.17.aar\70dba8b7f27e5748340b4403dd892db7\AndroidManifest.xml:45:1-56:12
MERGED from [com.crashlytics.sdk.android:answers:1.3.13] C:\Users\paulovictorviana\.gradle\caches\transforms-1\files-1.1\answers-1.3.13.aar\7a2eb3c91f82d91aa3231eeb21dda9c4\AndroidManifest.xml:2:1-13:12
MERGED from [io.fabric.sdk.android:fabric:1.3.17] C:\Users\paulovictorviana\.gradle\caches\transforms-1\files-1.1\fabric-1.3.17.aar\a47f7e8380c2cf2d2239bb5bd1e109e9\AndroidManifest.xml:22:1-33:12
INJECTED from C:\brq\tfs-4251-ionic\SecurityTest\platforms\android\app\src\main\AndroidManifest.xml:2:1-16:12
INJECTED from C:\brq\tfs-4251-ionic\SecurityTest\platforms\android\app\src\main\AndroidManifest.xml:2:1-16:12
INJECTED from C:\brq\tfs-4251-ionic\SecurityTest\platforms\android\app\src\main\AndroidManifest.xml:2:1-16:12
	package
		ADDED from C:\brq\tfs-4251-ionic\SecurityTest\platforms\android\app\src\main\AndroidManifest.xml:2:98-124
		INJECTED from C:\brq\tfs-4251-ionic\SecurityTest\platforms\android\app\src\main\AndroidManifest.xml
		INJECTED from C:\brq\tfs-4251-ionic\SecurityTest\platforms\android\app\src\main\AndroidManifest.xml
	android:versionName
		ADDED from C:\brq\tfs-4251-ionic\SecurityTest\platforms\android\app\src\main\AndroidManifest.xml:2:70-97
		INJECTED from C:\brq\tfs-4251-ionic\SecurityTest\platforms\android\app\src\main\AndroidManifest.xml
		INJECTED from C:\brq\tfs-4251-ionic\SecurityTest\platforms\android\app\src\main\AndroidManifest.xml
	android:hardwareAccelerated
		ADDED from C:\brq\tfs-4251-ionic\SecurityTest\platforms\android\app\src\main\AndroidManifest.xml:2:11-45
	xmlns:android
		ADDED from C:\brq\tfs-4251-ionic\SecurityTest\platforms\android\app\src\main\AndroidManifest.xml:2:125-183
	android:versionCode
		ADDED from C:\brq\tfs-4251-ionic\SecurityTest\platforms\android\app\src\main\AndroidManifest.xml:2:46-69
		INJECTED from C:\brq\tfs-4251-ionic\SecurityTest\platforms\android\app\src\main\AndroidManifest.xml
		INJECTED from C:\brq\tfs-4251-ionic\SecurityTest\platforms\android\app\src\main\AndroidManifest.xml
supports-screens
ADDED from C:\brq\tfs-4251-ionic\SecurityTest\platforms\android\app\src\main\AndroidManifest.xml:3:5-191
	android:largeScreens
		ADDED from C:\brq\tfs-4251-ionic\SecurityTest\platforms\android\app\src\main\AndroidManifest.xml:3:49-76
	android:smallScreens
		ADDED from C:\brq\tfs-4251-ionic\SecurityTest\platforms\android\app\src\main\AndroidManifest.xml:3:132-159
	android:normalScreens
		ADDED from C:\brq\tfs-4251-ionic\SecurityTest\platforms\android\app\src\main\AndroidManifest.xml:3:77-105
	android:xlargeScreens
		ADDED from C:\brq\tfs-4251-ionic\SecurityTest\platforms\android\app\src\main\AndroidManifest.xml:3:160-188
	android:resizeable
		ADDED from C:\brq\tfs-4251-ionic\SecurityTest\platforms\android\app\src\main\AndroidManifest.xml:3:106-131
	android:anyDensity
		ADDED from C:\brq\tfs-4251-ionic\SecurityTest\platforms\android\app\src\main\AndroidManifest.xml:3:23-48
uses-permission#android.permission.INTERNET
ADDED from C:\brq\tfs-4251-ionic\SecurityTest\platforms\android\app\src\main\AndroidManifest.xml:4:5-67
MERGED from [com.crashlytics.sdk.android:crashlytics:2.6.8] C:\Users\paulovictorviana\.gradle\caches\transforms-1\files-1.1\crashlytics-2.6.8.aar\c8db0415237fe3dafd440f583b1ef5bd\AndroidManifest.xml:9:5-67
MERGED from [com.crashlytics.sdk.android:crashlytics:2.6.8] C:\Users\paulovictorviana\.gradle\caches\transforms-1\files-1.1\crashlytics-2.6.8.aar\c8db0415237fe3dafd440f583b1ef5bd\AndroidManifest.xml:9:5-67
MERGED from [com.crashlytics.sdk.android:beta:1.2.5] C:\Users\paulovictorviana\.gradle\caches\transforms-1\files-1.1\beta-1.2.5.aar\3ab9cf647d6583ea3fcc69cb9ec7bac9\AndroidManifest.xml:9:5-67
MERGED from [com.crashlytics.sdk.android:beta:1.2.5] C:\Users\paulovictorviana\.gradle\caches\transforms-1\files-1.1\beta-1.2.5.aar\3ab9cf647d6583ea3fcc69cb9ec7bac9\AndroidManifest.xml:9:5-67
MERGED from [com.crashlytics.sdk.android:crashlytics-core:2.3.17] C:\Users\paulovictorviana\.gradle\caches\transforms-1\files-1.1\crashlytics-core-2.3.17.aar\70dba8b7f27e5748340b4403dd892db7\AndroidManifest.xml:52:5-67
MERGED from [com.crashlytics.sdk.android:crashlytics-core:2.3.17] C:\Users\paulovictorviana\.gradle\caches\transforms-1\files-1.1\crashlytics-core-2.3.17.aar\70dba8b7f27e5748340b4403dd892db7\AndroidManifest.xml:52:5-67
MERGED from [com.crashlytics.sdk.android:answers:1.3.13] C:\Users\paulovictorviana\.gradle\caches\transforms-1\files-1.1\answers-1.3.13.aar\7a2eb3c91f82d91aa3231eeb21dda9c4\AndroidManifest.xml:9:5-67
MERGED from [com.crashlytics.sdk.android:answers:1.3.13] C:\Users\paulovictorviana\.gradle\caches\transforms-1\files-1.1\answers-1.3.13.aar\7a2eb3c91f82d91aa3231eeb21dda9c4\AndroidManifest.xml:9:5-67
MERGED from [io.fabric.sdk.android:fabric:1.3.17] C:\Users\paulovictorviana\.gradle\caches\transforms-1\files-1.1\fabric-1.3.17.aar\a47f7e8380c2cf2d2239bb5bd1e109e9\AndroidManifest.xml:29:5-67
MERGED from [io.fabric.sdk.android:fabric:1.3.17] C:\Users\paulovictorviana\.gradle\caches\transforms-1\files-1.1\fabric-1.3.17.aar\a47f7e8380c2cf2d2239bb5bd1e109e9\AndroidManifest.xml:29:5-67
	android:name
		ADDED from C:\brq\tfs-4251-ionic\SecurityTest\platforms\android\app\src\main\AndroidManifest.xml:4:22-64
application
ADDED from C:\brq\tfs-4251-ionic\SecurityTest\platforms\android\app\src\main\AndroidManifest.xml:5:5-13:19
MERGED from [com.crashlytics.sdk.android:crashlytics:2.6.8] C:\Users\paulovictorviana\.gradle\caches\transforms-1\files-1.1\crashlytics-2.6.8.aar\c8db0415237fe3dafd440f583b1ef5bd\AndroidManifest.xml:11:5-20
MERGED from [com.crashlytics.sdk.android:crashlytics:2.6.8] C:\Users\paulovictorviana\.gradle\caches\transforms-1\files-1.1\crashlytics-2.6.8.aar\c8db0415237fe3dafd440f583b1ef5bd\AndroidManifest.xml:11:5-20
MERGED from [com.crashlytics.sdk.android:beta:1.2.5] C:\Users\paulovictorviana\.gradle\caches\transforms-1\files-1.1\beta-1.2.5.aar\3ab9cf647d6583ea3fcc69cb9ec7bac9\AndroidManifest.xml:11:5-20
MERGED from [com.crashlytics.sdk.android:beta:1.2.5] C:\Users\paulovictorviana\.gradle\caches\transforms-1\files-1.1\beta-1.2.5.aar\3ab9cf647d6583ea3fcc69cb9ec7bac9\AndroidManifest.xml:11:5-20
MERGED from [com.crashlytics.sdk.android:crashlytics-core:2.3.17] C:\Users\paulovictorviana\.gradle\caches\transforms-1\files-1.1\crashlytics-core-2.3.17.aar\70dba8b7f27e5748340b4403dd892db7\AndroidManifest.xml:54:5-20
MERGED from [com.crashlytics.sdk.android:crashlytics-core:2.3.17] C:\Users\paulovictorviana\.gradle\caches\transforms-1\files-1.1\crashlytics-core-2.3.17.aar\70dba8b7f27e5748340b4403dd892db7\AndroidManifest.xml:54:5-20
MERGED from [com.crashlytics.sdk.android:answers:1.3.13] C:\Users\paulovictorviana\.gradle\caches\transforms-1\files-1.1\answers-1.3.13.aar\7a2eb3c91f82d91aa3231eeb21dda9c4\AndroidManifest.xml:11:5-20
MERGED from [com.crashlytics.sdk.android:answers:1.3.13] C:\Users\paulovictorviana\.gradle\caches\transforms-1\files-1.1\answers-1.3.13.aar\7a2eb3c91f82d91aa3231eeb21dda9c4\AndroidManifest.xml:11:5-20
MERGED from [io.fabric.sdk.android:fabric:1.3.17] C:\Users\paulovictorviana\.gradle\caches\transforms-1\files-1.1\fabric-1.3.17.aar\a47f7e8380c2cf2d2239bb5bd1e109e9\AndroidManifest.xml:31:5-20
MERGED from [io.fabric.sdk.android:fabric:1.3.17] C:\Users\paulovictorviana\.gradle\caches\transforms-1\files-1.1\fabric-1.3.17.aar\a47f7e8380c2cf2d2239bb5bd1e109e9\AndroidManifest.xml:31:5-20
	android:supportsRtl
		ADDED from C:\brq\tfs-4251-ionic\SecurityTest\platforms\android\app\src\main\AndroidManifest.xml:5:114-140
	android:label
		ADDED from C:\brq\tfs-4251-ionic\SecurityTest\platforms\android\app\src\main\AndroidManifest.xml:5:81-113
	android:hardwareAccelerated
		ADDED from C:\brq\tfs-4251-ionic\SecurityTest\platforms\android\app\src\main\AndroidManifest.xml:5:18-52
	android:icon
		ADDED from C:\brq\tfs-4251-ionic\SecurityTest\platforms\android\app\src\main\AndroidManifest.xml:5:53-80
activity#io.ionic.starter.MainActivity
ADDED from C:\brq\tfs-4251-ionic\SecurityTest\platforms\android\app\src\main\AndroidManifest.xml:6:9-11:20
	android:label
		ADDED from C:\brq\tfs-4251-ionic\SecurityTest\platforms\android\app\src\main\AndroidManifest.xml:6:97-134
	android:launchMode
		ADDED from C:\brq\tfs-4251-ionic\SecurityTest\platforms\android\app\src\main\AndroidManifest.xml:6:135-165
	android:windowSoftInputMode
		ADDED from C:\brq\tfs-4251-ionic\SecurityTest\platforms\android\app\src\main\AndroidManifest.xml:6:257-299
	android:configChanges
		ADDED from C:\brq\tfs-4251-ionic\SecurityTest\platforms\android\app\src\main\AndroidManifest.xml:6:19-96
	android:theme
		ADDED from C:\brq\tfs-4251-ionic\SecurityTest\platforms\android\app\src\main\AndroidManifest.xml:6:194-256
	android:name
		ADDED from C:\brq\tfs-4251-ionic\SecurityTest\platforms\android\app\src\main\AndroidManifest.xml:6:166-193
intent-filter#android.intent.action.MAIN+android.intent.category.LAUNCHER
ADDED from C:\brq\tfs-4251-ionic\SecurityTest\platforms\android\app\src\main\AndroidManifest.xml:7:13-10:29
	android:label
		ADDED from C:\brq\tfs-4251-ionic\SecurityTest\platforms\android\app\src\main\AndroidManifest.xml:7:28-65
action#android.intent.action.MAIN
ADDED from C:\brq\tfs-4251-ionic\SecurityTest\platforms\android\app\src\main\AndroidManifest.xml:8:17-69
	android:name
		ADDED from C:\brq\tfs-4251-ionic\SecurityTest\platforms\android\app\src\main\AndroidManifest.xml:8:25-66
category#android.intent.category.LAUNCHER
ADDED from C:\brq\tfs-4251-ionic\SecurityTest\platforms\android\app\src\main\AndroidManifest.xml:9:17-77
	android:name
		ADDED from C:\brq\tfs-4251-ionic\SecurityTest\platforms\android\app\src\main\AndroidManifest.xml:9:27-74
meta-data#io.fabric.ApiKey
ADDED from C:\brq\tfs-4251-ionic\SecurityTest\platforms\android\app\src\main\AndroidManifest.xml:12:9-111
	android:value
		ADDED from C:\brq\tfs-4251-ionic\SecurityTest\platforms\android\app\src\main\AndroidManifest.xml:12:52-108
	android:name
		ADDED from C:\brq\tfs-4251-ionic\SecurityTest\platforms\android\app\src\main\AndroidManifest.xml:12:20-51
uses-sdk
ADDED from C:\brq\tfs-4251-ionic\SecurityTest\platforms\android\app\src\main\AndroidManifest.xml:14:5-74
MERGED from [com.crashlytics.sdk.android:crashlytics:2.6.8] C:\Users\paulovictorviana\.gradle\caches\transforms-1\files-1.1\crashlytics-2.6.8.aar\c8db0415237fe3dafd440f583b1ef5bd\AndroidManifest.xml:7:5-43
MERGED from [com.crashlytics.sdk.android:crashlytics:2.6.8] C:\Users\paulovictorviana\.gradle\caches\transforms-1\files-1.1\crashlytics-2.6.8.aar\c8db0415237fe3dafd440f583b1ef5bd\AndroidManifest.xml:7:5-43
MERGED from [:CordovaLib] C:\brq\tfs-4251-ionic\SecurityTest\platforms\android\CordovaLib\build\intermediates\manifests\full\debug\AndroidManifest.xml:25:5-44
MERGED from [:CordovaLib] C:\brq\tfs-4251-ionic\SecurityTest\platforms\android\CordovaLib\build\intermediates\manifests\full\debug\AndroidManifest.xml:25:5-44
MERGED from [com.crashlytics.sdk.android:beta:1.2.5] C:\Users\paulovictorviana\.gradle\caches\transforms-1\files-1.1\beta-1.2.5.aar\3ab9cf647d6583ea3fcc69cb9ec7bac9\AndroidManifest.xml:7:5-43
MERGED from [com.crashlytics.sdk.android:beta:1.2.5] C:\Users\paulovictorviana\.gradle\caches\transforms-1\files-1.1\beta-1.2.5.aar\3ab9cf647d6583ea3fcc69cb9ec7bac9\AndroidManifest.xml:7:5-43
MERGED from [com.crashlytics.sdk.android:crashlytics-core:2.3.17] C:\Users\paulovictorviana\.gradle\caches\transforms-1\files-1.1\crashlytics-core-2.3.17.aar\70dba8b7f27e5748340b4403dd892db7\AndroidManifest.xml:50:5-43
MERGED from [com.crashlytics.sdk.android:crashlytics-core:2.3.17] C:\Users\paulovictorviana\.gradle\caches\transforms-1\files-1.1\crashlytics-core-2.3.17.aar\70dba8b7f27e5748340b4403dd892db7\AndroidManifest.xml:50:5-43
MERGED from [com.crashlytics.sdk.android:answers:1.3.13] C:\Users\paulovictorviana\.gradle\caches\transforms-1\files-1.1\answers-1.3.13.aar\7a2eb3c91f82d91aa3231eeb21dda9c4\AndroidManifest.xml:7:5-43
MERGED from [com.crashlytics.sdk.android:answers:1.3.13] C:\Users\paulovictorviana\.gradle\caches\transforms-1\files-1.1\answers-1.3.13.aar\7a2eb3c91f82d91aa3231eeb21dda9c4\AndroidManifest.xml:7:5-43
MERGED from [io.fabric.sdk.android:fabric:1.3.17] C:\Users\paulovictorviana\.gradle\caches\transforms-1\files-1.1\fabric-1.3.17.aar\a47f7e8380c2cf2d2239bb5bd1e109e9\AndroidManifest.xml:27:5-43
MERGED from [io.fabric.sdk.android:fabric:1.3.17] C:\Users\paulovictorviana\.gradle\caches\transforms-1\files-1.1\fabric-1.3.17.aar\a47f7e8380c2cf2d2239bb5bd1e109e9\AndroidManifest.xml:27:5-43
	android:targetSdkVersion
		ADDED from C:\brq\tfs-4251-ionic\SecurityTest\platforms\android\app\src\main\AndroidManifest.xml:14:42-71
	android:minSdkVersion
		ADDED from C:\brq\tfs-4251-ionic\SecurityTest\platforms\android\app\src\main\AndroidManifest.xml:14:15-41
uses-permission#android.permission.USE_FINGERPRINT
ADDED from C:\brq\tfs-4251-ionic\SecurityTest\platforms\android\app\src\main\AndroidManifest.xml:15:5-74
	android:name
		ADDED from C:\brq\tfs-4251-ionic\SecurityTest\platforms\android\app\src\main\AndroidManifest.xml:15:22-71
