{
  "prepare_queue": {
    "installed": [],
    "uninstalled": []
  },
  "config_munge": {
    "files": {}
  },
  "installed_plugins": {
    "cordova-plugin-whitelist": {
      "PACKAGE_NAME": "io.ionic.starter"
    },
    "cordova-plugin-statusbar": {
      "PACKAGE_NAME": "io.ionic.starter"
    },
    "cordova-plugin-device": {
      "PACKAGE_NAME": "io.ionic.starter"
    },
    "cordova-plugin-splashscreen": {
      "PACKAGE_NAME": "io.ionic.starter"
    },
    "cordova-plugin-ionic-webview": {
      "ANDROID_SUPPORT_ANNOTATIONS_VERSION": "27.+",
      "PACKAGE_NAME": "io.ionic.starter"
    },
    "cordova-plugin-ionic-keyboard": {
      "PACKAGE_NAME": "io.ionic.starter"
    },
    "cordova-plugin-fingerprint-aio": {
      "PACKAGE_NAME": "io.ionic.starter"
    },
    "cordova-fabric-plugin": {
      "FABRIC_API_KEY": "1937ed5d81f55ab55be28a97f2c9e28d697b0aa1",
      "FABRIC_API_SECRET": "90b64e75792065e0724a59925d99de5bb67b5de203f97bc88f01a10081c1f5a0",
      "PACKAGE_NAME": "io.ionic.starter"
    }
  },
  "dependent_plugins": {}
}